<?xml version="1.0" encoding="UTF-8" standalone="no"?>
<svg
   xmlns:dc="http://purl.org/dc/elements/1.1/"
   xmlns:cc="http://creativecommons.org/ns#"
   xmlns:rdf="http://www.w3.org/1999/02/22-rdf-syntax-ns#"
   xmlns:svg="http://www.w3.org/2000/svg"
   xmlns="http://www.w3.org/2000/svg"
   xmlns:sodipodi="http://sodipodi.sourceforge.net/DTD/sodipodi-0.dtd"
   xmlns:inkscape="http://www.inkscape.org/namespaces/inkscape"
   sodipodi:docname="logo_linuxdenken.svg"
   inkscape:version="1.0 (4035a4fb49, 2020-05-01)"
   inkscape:export-ydpi="96"
   inkscape:export-xdpi="96"
   inkscape:export-filename="/home/sebastian/Nextcloud/Bilder/logo_linuxdenken_schwarz.png"
   id="svg8"
   version="1.1"
   viewBox="0 0 82.549997 82.549997"
   height="312"
   width="312">
  <defs
     id="defs2" />
  <sodipodi:namedview
     inkscape:window-maximized="0"
     inkscape:window-y="0"
     inkscape:window-x="44"
     inkscape:window-height="910"
     inkscape:window-width="1230"
     units="px"
     inkscape:pagecheckerboard="true"
     showguides="false"
     showgrid="false"
     inkscape:document-rotation="0"
     inkscape:current-layer="layer1"
     inkscape:document-units="mm"
     inkscape:cy="168.08625"
     inkscape:cx="-5.1808035"
     inkscape:zoom="1.4"
     inkscape:pageshadow="2"
     inkscape:pageopacity="0.01568627"
     borderopacity="0.01176471"
     bordercolor="#666666"
     pagecolor="#ffffff"
     id="base" />
  <metadata
     id="metadata5">
    <rdf:RDF>
      <cc:Work
         rdf:about="">
        <dc:format>image/svg+xml</dc:format>
        <dc:type
           rdf:resource="http://purl.org/dc/dcmitype/StillImage" />
        <dc:title></dc:title>
      </cc:Work>
    </rdf:RDF>
  </metadata>
  <g
     id="layer1"
     inkscape:groupmode="layer"
     inkscape:label="Ebene 1">
    <rect
       y="12.336887"
       x="23.233522"
       height="58.776024"
       width="7.5168567"
       id="rect860"
       style="fill:#f9f9f9;fill-opacity:1;stroke-width:0.24845" />
    <rect
       transform="matrix(-0.00102546,0.99999947,-0.99999442,-0.00334066,0,0)"
       style="fill:#f9f9f9;fill-opacity:1;stroke-width:0.212925"
       id="rect860-3"
       width="7.1896143"
       height="45.134117"
       x="63.850555"
       y="-68.583244" />
    <rect
       y="44.161549"
       x="59.386982"
       height="27.107698"
       width="9.1208048"
       id="rect877"
       style="fill:#f9f9f9;fill-opacity:1;stroke-width:0.264583" />
    <rect
       inkscape:export-ydpi="96"
       inkscape:export-xdpi="96"
       y="31.428782"
       x="59.67223"
       height="8.892868"
       width="8.903388"
       id="rect879"
       style="fill:#f9f9f9;fill-opacity:1;stroke-width:0.290605" />
  </g>
</svg>
